%YAML 1.1
%TAG !u! tag:unity3d.com,2011:
--- !u!21 &2100000
Material:
  serializedVersion: 6
  m_ObjectHideFlags: 0
  m_CorrespondingSourceObject: {fileID: 0}
  m_PrefabInstance: {fileID: 0}
  m_PrefabAsset: {fileID: 0}
  m_Name: mtl_X_09
  m_Shader: {fileID: 4800000, guid: 248c938d6c80a154a8b037fde3c6ac52, type: 3}
  m_ShaderKeywords: _ENABLED_ON
  m_LightmapFlags: 5
  m_EnableInstancingVariants: 0
  m_DoubleSidedGI: 0
  m_CustomRenderQueue: -1
  stringTagMap: {}
  disabledShaderPasses: []
  m_SavedProperties:
    serializedVersion: 3
    m_TexEnvs:
    - _Distort:
        m_Texture: {fileID: 2800000, guid: c41ee8c340c7b644fbc3bf182fa0d2ab, type: 3}
        m_Scale: {x: 1, y: 1}
        m_Offset: {x: 170.41925, y: 170.41925}
    - _LavaTex:
        m_Texture: {fileID: 2800000, guid: d3f6b18d152c20e4e8bc3a280e873dc9, type: 3}
        m_Scale: {x: 1, y: 1}
        m_Offset: {x: 0.44087234, y: 0}
    - _MainTex:
        m_Texture: {fileID: 2800000, guid: 1552b5d2e5e60744480c564d2987f915, type: 3}
        m_Scale: {x: 2, y: 2}
        m_Offset: {x: 0, y: 0}
    - _MaskTex:
        m_Texture: {fileID: 2800000, guid: c4f9f284c6956b14b9c1e8ff71ab68d9, type: 3}
        m_Scale: {x: 1, y: 1}
        m_Offset: {x: 0, y: 0}
    m_Floats:
    - _AlphaM: 5
    - _CullMode: 0
    - _DistortScrollX: -1
    - _DistortScrollY: 0
    - _DistortX: 0.2
    - _DistortY: 0.38
    - _DstBlend: 1
    m_Colors:
    - _Color: {r: 1, g: 1, b: 1, a: 1}
